{
    "type": "minecraft:block",
    "pools": [
        {
            "rolls": 1,
            "entries": [
                {
                    "type": "minecraft:alternatives",
                    "children": [
                        {
                            "type": "minecraft:dynamic",
                            "name": "minecraft:contents",
                            "conditions": [
                                {
                                    "condition": "minecraft:match_tool",
                                    "predicate": {
                                        "custom_data": "{drop_contents: 1b}"
                                    }
                                }
                            ]
                        },
                        {
                            "type": "minecraft:item",
                            "functions": [
                                {
                                    "function": "minecraft:copy_components",
                                    "source": "block_entity",
                                    "components": [
                                        "minecraft:custom_name",
                                        "minecraft:container",
                                        "minecraft:lock",
                                        "minecraft:container_loot"
                                    ]
                                }
                            ],
                            "name": "minecraft:yellow_shulker_box",
                            "conditions": [
                                {
                                    "condition": "minecraft:inverted",
                                    "term": {
                                        "condition": "minecraft:location_check",
                                        "predicate": {
                                            "position": {
                                                "x": 13,
                                                "y": -64,
                                                "z": 2
                                            }
                                        }
                                    }
                                }
                            ]
                        }
                    ]
                }
            ]
        }
    ],
    "random_sequence": "minecraft:blocks/yellow_shulker_box"
}

